basic_design/top.vcd
$date
  Mon Feb 19 15:31:16 2018
$end
$version
  GHDL v0
$end
$timescale
  1 fs
$end
$var reg 1 ! clk $end
$var reg 1 " rst $end
$var reg 1 # app_en $end
$var reg 1 $ app_wdf_data $end
$var reg 1 % app_wdf_end $end
$var reg 1 & app_wren $end
$var reg 1 ' app_rdy $end
$var reg 1 ( app_rd_data_end $end
$var reg 1 ) app_rd_data_valid $end
$var reg 1 * app_wdf_full $end
$var reg 64 + data_in[63:0] $end
$var reg 64 , app_rd_data[63:0] $end
$var reg 32 - app_addr[31:0] $end
$var reg 2 . app_cmd[1:0] $end
$var reg 1 / phy_init_done[0:0] $end
$scope module dut $end
$var reg 1 0 clk $end
$var reg 1 1 rst $end
$var reg 64 2 data_in[63:0] $end
$var reg 32 3 app_addr[31:0] $end
$var reg 2 4 app_cmd[1:0] $end
$var reg 1 5 app_en $end
$var reg 1 6 app_wdf_data $end
$var reg 1 7 app_wdf_end $end
$var reg 1 8 app_wren $end
$var reg 64 9 app_rd_data[63:0] $end
$var reg 1 : phy_init_done[0:0] $end
$var reg 1 ; app_rdy $end
$var reg 1 < app_rd_data_end $end
$var reg 1 = app_rd_data_valid $end
$var reg 1 > app_wdf_full $end
$var reg 1 ? out_data_pipe_write_ack $end
$var reg 1 @ in_data_pipe_read_ack $end
$var reg 1 A out_data_pipe_write_req $end
$var reg 1 B in_data_pipe_read_req $end
$var reg 64 C out_data_pipe_write_data[63:0] $end
$var reg 64 D in_data_pipe_read_data[63:0] $end
$scope module ahir_dut $end
$var reg 1 E clk $end
$var reg 1 F rst $end
$var reg 64 G data_in[63:0] $end
$var reg 64 H out_data_pipe_write_data[63:0] $end
$var reg 1 I out_data_pipe_write_ack $end
$var reg 1 J out_data_pipe_write_req $end
$var reg 1 K in_data_pipe_read_req $end
$var reg 1 L in_data_pipe_read_ack $end
$var reg 64 M in_data_pipe_read_data[63:0] $end
$comment state is not handled $end
$var reg 1 N done $end
$var integer 32 O count $end
$upscope $end
$scope module bridge_dut $end
$var reg 1 P clk $end
$var reg 1 Q rst $end
$var reg 64 R out_data_pipe_write_data[63:0] $end
$var reg 1 S out_data_pipe_write_ack $end
$var reg 1 T out_data_pipe_write_req $end
$var reg 1 U in_data_pipe_read_req $end
$var reg 1 V in_data_pipe_read_ack $end
$var reg 64 W in_data_pipe_read_data[63:0] $end
$var reg 32 X app_addr[31:0] $end
$var reg 2 Y app_cmd[1:0] $end
$var reg 1 Z app_en $end
$var reg 1 [ app_wdf_data $end
$var reg 1 \ app_wdf_end $end
$var reg 1 ] app_wren $end
$var reg 64 ^ app_rd_data[63:0] $end
$var reg 1 _ phy_init_done[0:0] $end
$var reg 1 ` app_rdy $end
$var reg 1 a app_rd_data_end $end
$var reg 1 b app_rd_data_valid $end
$var reg 1 c app_wdf_full $end
$comment state is not handled $end
$var reg 1 d done $end
$var integer 32 e count_words $end
$var integer 32 f count_rdy $end
$var integer 32 g count_valid $end
$upscope $end
$upscope $end
$enddefinitions $end
#0
0!
1"
U#
U$
U%
U&
U'
U(
U)
U*
b0000000000001000000000000000000000000000000010000000000000000000 +
bUUUUUUUUUUUUUUUUUUUUUUUUUUUUUUUUUUUUUUUUUUUUUUUUUUUUUUUUUUUUUUUU ,
bUUUUUUUUUUUUUUUUUUUUUUUUUUUUUUUU -
bUU .
bU /
00
11
b0000000000001000000000000000000000000000000010000000000000000000 2
bUUUUUUUUUUUUUUUUUUUUUUUUUUUUUUUU 3
bUU 4
U5
U6
U7
U8
bUUUUUUUUUUUUUUUUUUUUUUUUUUUUUUUUUUUUUUUUUUUUUUUUUUUUUUUUUUUUUUUU 9
bU :
U;
U<
U=
U>
U?
U@
UA
UB
bUUUUUUUUUUUUUUUUUUUUUUUUUUUUUUUUUUUUUUUUUUUUUUUUUUUUUUUUUUUUUUUU C
bUUUUUUUUUUUUUUUUUUUUUUUUUUUUUUUUUUUUUUUUUUUUUUUUUUUUUUUUUUUUUUUU D
0E
1F
b0000000000001000000000000000000000000000000010000000000000000000 G
bUUUUUUUUUUUUUUUUUUUUUUUUUUUUUUUUUUUUUUUUUUUUUUUUUUUUUUUUUUUUUUUU H
UI
UJ
UK
UL
bUUUUUUUUUUUUUUUUUUUUUUUUUUUUUUUUUUUUUUUUUUUUUUUUUUUUUUUUUUUUUUUU M
0N
b0 O
0P
1Q
bUUUUUUUUUUUUUUUUUUUUUUUUUUUUUUUUUUUUUUUUUUUUUUUUUUUUUUUUUUUUUUUU R
US
UT
UU
UV
bUUUUUUUUUUUUUUUUUUUUUUUUUUUUUUUUUUUUUUUUUUUUUUUUUUUUUUUUUUUUUUUU W
bUUUUUUUUUUUUUUUUUUUUUUUUUUUUUUUU X
bUU Y
UZ
U[
U\
U]
bUUUUUUUUUUUUUUUUUUUUUUUUUUUUUUUUUUUUUUUUUUUUUUUUUUUUUUUUUUUUUUUU ^
bU _
U`
Ua
Ub
Uc
0d
b0 e
b0 f
b0 g
#5000000
1!
10
1E
1P
#10000000
0!
0"
1'
0(
0)
00
01
1;
0<
0=
0E
0F
0P
0Q
1`
0a
0b
#15000000
1!
10
1E
1P
#20000000
0!
00
0E
0P
#25000000
1!
10
1A
1B
b0000000000001000000000000000000000000000000010000000000000000000 C
1E
b0000000000001000000000000000000000000000000010000000000000000000 H
1J
1K
1P
b0000000000001000000000000000000000000000000010000000000000000000 R
1T
1U
#30000000
0!
00
0E
0P
#35000000
1!
10
1E
1P
#40000000
0!
00
0E
0P
#45000000
1!
1#
1)
b1100000000001000000000000000000000000000000011111111111111111111 ,
b00000000000000000000000000001000 -
b00 .
10
b00000000000000000000000000001000 3
b00 4
15
b1100000000001000000000000000000000000000000011111111111111111111 9
1=
1E
1P
b00000000000000000000000000001000 X
b00 Y
1Z
b1100000000001000000000000000000000000000000011111111111111111111 ^
1b
#50000000
0!
00
0E
0P
#55000000
1!
b0000000000001000000000000000000000000000000011111111111111111000 ,
10
b0000000000001000000000000000000000000000000011111111111111111000 9
1?
1@
b1100000000001000000000000000000000000000000011111111111111111111 D
1E
1I
1L
b1100000000001000000000000000000000000000000011111111111111111111 M
1P
1S
1V
b1100000000001000000000000000000000000000000011111111111111111111 W
b0000000000001000000000000000000000000000000011111111111111111000 ^
b1 e
#60000000
0!
00
0E
0P
#65000000
1!
b0000000000001000000000000000000000000011000011111111111111111111 ,
10
b0000000000001000000000000000000000000011000011111111111111111111 9
0A
0B
b0000000000001000000000000000000000000000000011111111111111111000 D
1E
0J
0K
b0000000000001000000000000000000000000000000011111111111111111000 M
1P
0T
0U
b0000000000001000000000000000000000000000000011111111111111111000 W
b0000000000001000000000000000000000000011000011111111111111111111 ^
b10 e
#70000000
0!
00
0E
0P
#75000000
1!
b0110000000001000000000000000000000000000000011111111111111111111 ,
10
b0110000000001000000000000000000000000000000011111111111111111111 9
b0000000000001000000000000000000000000011000011111111111111111111 D
1E
b0000000000001000000000000000000000000011000011111111111111111111 M
b1 O
1P
b0000000000001000000000000000000000000011000011111111111111111111 W
b0110000000001000000000000000000000000000000011111111111111111111 ^
b11 e
#80000000
0!
00
0E
0P
#85000000
1!
b0001000100111000000000000000000000000000000011111111111111111111 ,
10
b0001000100111000000000000000000000000000000011111111111111111111 9
b0110000000001000000000000000000000000000000011111111111111111111 D
1E
b0110000000001000000000000000000000000000000011111111111111111111 M
b10 O
1P
b0110000000001000000000000000000000000000000011111111111111111111 W
b0001000100111000000000000000000000000000000011111111111111111111 ^
b100 e
#90000000
0!
00
0E
0P
#95000000
1!
b0001000000101110000000000000000000000000000011111111111111111111 ,
10
b0001000000101110000000000000000000000000000011111111111111111111 9
b0001000100111000000000000000000000000000000011111111111111111111 D
1E
b0001000100111000000000000000000000000000000011111111111111111111 M
b11 O
1P
b0001000100111000000000000000000000000000000011111111111111111111 W
b0001000000101110000000000000000000000000000011111111111111111111 ^
b101 e
#100000000
0!
00
0E
0P
#105000000
1!
b0001000100111110000000000000000000000000000011111111111111111111 ,
10
b0001000100111110000000000000000000000000000011111111111111111111 9
b0001000000101110000000000000000000000000000011111111111111111111 D
1E
b0001000000101110000000000000000000000000000011111111111111111111 M
b100 O
1P
b0001000000101110000000000000000000000000000011111111111111111111 W
b0001000100111110000000000000000000000000000011111111111111111111 ^
b110 e
#110000000
0!
00
0E
0P
#115000000
1!
b0001000100111011000000000000000000000000000011111111111111111111 ,
10
b0001000100111011000000000000000000000000000011111111111111111111 9
b0001000100111110000000000000000000000000000011111111111111111111 D
1E
b0001000100111110000000000000000000000000000011111111111111111111 M
b101 O
1P
b0001000100111110000000000000000000000000000011111111111111111111 W
b0001000100111011000000000000000000000000000011111111111111111111 ^
b111 e
#120000000
0!
00
0E
0P
#125000000
1!
1(
b0 /
10
b0 :
1<
b0001000100111011000000000000000000000000000011111111111111111111 D
1E
b0001000100111011000000000000000000000000000011111111111111111111 M
b110 O
1P
b0001000100111011000000000000000000000000000011111111111111111111 W
b0 _
1a
b1000 e
#130000000
0!
00
0E
0P
#135000000
1!
10
1E
b111 O
1P
#140000000
0!
00
0E
0P
#145000000
1!
10
b0000000000000000000000000000100000000000000000000000000000000000 D
1E
b0000000000000000000000000000100000000000000000000000000000000000 M
b1000 O
1P
b0000000000000000000000000000100000000000000000000000000000000000 W
1d
